{
  "count": 9427,
  "next": "https://api.brasil.io/v1/dataset/covid19/caso_full/data/?page=2&place_type=state",
  "previous": null,
  "results": [
    {
      "city": null,
      "city_ibge_code": 12,
      "date": "2021-02-24",
      "epidemiological_week": 202108,
      "estimated_population": 894470,
      "estimated_population_2019": 881935,
      "is_last": true,
      "is_repeated": false,
      "last_available_confirmed": 55881,
      "last_available_confirmed_per_100k_inhabitants": 6247.38672,
      "last_available_date": "2021-02-24",
      "last_available_death_rate": 0.0174,
      "last_available_deaths": 975,
      "new_confirmed": 291,
      "new_deaths": 2,
      "order_for_place": 345,
      "place_type": "state",
      "state": "AC"
    },
    {
      "city": null,
      "city_ibge_code": 27,
      "date": "2021-02-24",
      "epidemiological_week": 202108,
      "estimated_population": 3351543,
      "estimated_population_2019": 3337357,
      "is_last": true,
      "is_repeated": false,
      "last_available_confirmed": 129445,
      "last_available_confirmed_per_100k_inhabitants": 3862.25091,
      "last_available_date": "2021-02-24",
      "last_available_death_rate": 0.0229,
      "last_available_deaths": 2959,
      "new_confirmed": 399,
      "new_deaths": 10,
      "order_for_place": 354,
      "place_type": "state",
      "state": "AL"
    },
    {
      "city": null,
      "city_ibge_code": 13,
      "date": "2021-02-24",
      "epidemiological_week": 202108,
      "estimated_population": 4207714,
      "estimated_population_2019": 4144597,
      "is_last": true,
      "is_repeated": false,
      "last_available_confirmed": 310919,
      "last_available_confirmed_per_100k_inhabitants": 7389.26172,
      "last_available_date": "2021-02-24",
      "last_available_death_rate": 0.0342,
      "last_available_deaths": 10642,
      "new_confirmed": 1608,
      "new_deaths": 69,
      "order_for_place": 349,
      "place_type": "state",
      "state": "AM"
    },
    {
      "city": null,
      "city_ibge_code": 16,
      "date": "2021-02-24",
      "epidemiological_week": 202108,
      "estimated_population": 861773,
      "estimated_population_2019": 845731,
      "is_last": true,
      "is_repeated": false,
      "last_available_confirmed": 82868,
      "last_available_confirmed_per_100k_inhabitants": 9615.98936,
      "last_available_date": "2021-02-24",
      "last_available_death_rate": 0.0136,
      "last_available_deaths": 1131,
      "new_confirmed": 262,
      "new_deaths": 4,
      "order_for_place": 342,
      "place_type": "state",
      "state": "AP"
    },
    {
      "city": null,
      "city_ibge_code": 29,
      "date": "2021-02-24",
      "epidemiological_week": 202108,
      "estimated_population": 14930634,
      "estimated_population_2019": 14873064,
      "is_last": true,
      "is_repeated": false,
      "last_available_confirmed": 664904,
      "last_available_confirmed_per_100k_inhabitants": 4453.28711,
      "last_available_date": "2021-02-24",
      "last_available_death_rate": 0.0171,
      "last_available_deaths": 11388,
      "new_confirmed": 4398,
      "new_deaths": 68,
      "order_for_place": 356,
      "place_type": "state",
      "state": "BA"
    },
    {
      "city": null,
      "city_ibge_code": 23,
      "date": "2021-02-24",
      "epidemiological_week": 202108,
      "estimated_population": 9187103,
      "estimated_population_2019": 9132078,
      "is_last": true,
      "is_repeated": false,
      "last_available_confirmed": 416790,
      "last_available_confirmed_per_100k_inhabitants": 4536.68583,
      "last_available_date": "2021-02-24",
      "last_available_death_rate": 0.0266,
      "last_available_deaths": 11104,
      "new_confirmed": 2298,
      "new_deaths": 32,
      "order_for_place": 346,
      "place_type": "state",
      "state": "CE"
    },
    {
      "city": null,
      "city_ibge_code": 53,
      "date": "2021-02-24",
      "epidemiological_week": 202108,
      "estimated_population": 3055149,
      "estimated_population_2019": 3015268,
      "is_last": true,
      "is_repeated": false,
      "last_available_confirmed": 292714,
      "last_available_confirmed_per_100k_inhabitants": 9581.00571,
      "last_available_date": "2021-02-24",
      "last_available_death_rate": 0.0164,
      "last_available_deaths": 4791,
      "new_confirmed": 1361,
      "new_deaths": 16,
      "order_for_place": 355,
      "place_type": "state",
      "state": "DF"
    },
    {
      "city": null,
      "city_ibge_code": 32,
      "date": "2021-02-24",
      "epidemiological_week": 202108,
      "estimated_population": 4064052,
      "estimated_population_2019": 4018650,
      "is_last": true,
      "is_repeated": false,
      "last_available_confirmed": 321630,
      "last_available_confirmed_per_100k_inhabitants": 7914.02275,
      "last_available_date": "2021-02-24",
      "last_available_death_rate": 0.0197,
      "last_available_deaths": 6340,
      "new_confirmed": 1447,
      "new_deaths": 17,
      "order_for_place": 357,
      "place_type": "state",
      "state": "ES"
    },
    {
      "city": null,
      "city_ibge_code": 52,
      "date": "2021-02-24",
      "epidemiological_week": 202108,
      "estimated_population": 7113540,
      "estimated_population_2019": 7018354,
      "is_last": true,
      "is_repeated": false,
      "last_available_confirmed": 388554,
      "last_available_confirmed_per_100k_inhabitants": 5462.17495,
      "last_available_date": "2021-02-24",
      "last_available_death_rate": 0.0217,
      "last_available_deaths": 8431,
      "new_confirmed": 2707,
      "new_deaths": 48,
      "order_for_place": 350,
      "place_type": "state",
      "state": "GO"
    },
    {
      "city": null,
      "city_ibge_code": 21,
      "date": "2021-02-24",
      "epidemiological_week": 202108,
      "estimated_population": 7114598,
      "estimated_population_2019": 7075181,
      "is_last": true,
      "is_repeated": false,
      "last_available_confirmed": 217302,
      "last_available_confirmed_per_100k_inhabitants": 3054.31171,
      "last_available_date": "2021-02-24",
      "last_available_death_rate": 0.0229,
      "last_available_deaths": 4977,
      "new_confirmed": 655,
      "new_deaths": 15,
      "order_for_place": 342,
      "place_type": "state",
      "state": "MA"
    },
    {
      "city": null,
      "city_ibge_code": 31,
      "date": "2021-02-24",
      "epidemiological_week": 202108,
      "estimated_population": 21292666,
      "estimated_population_2019": 21168791,
      "is_last": true,
      "is_repeated": false,
      "last_available_confirmed": 853459,
      "last_available_confirmed_per_100k_inhabitants": 4008.22988,
      "last_available_date": "2021-02-24",
      "last_available_death_rate": 0.0211,
      "last_available_deaths": 17974,
      "new_confirmed": 5696,
      "new_deaths": 200,
      "order_for_place": 354,
      "place_type": "state",
      "state": "MG"
    },
    {
      "city": null,
      "city_ibge_code": 50,
      "date": "2021-02-24",
      "epidemiological_week": 202108,
      "estimated_population": 2809394,
      "estimated_population_2019": 2778986,
      "is_last": false,
      "is_repeated": true,
      "last_available_confirmed": 178250,
      "last_available_confirmed_per_100k_inhabitants": 6344.78468,
      "last_available_date": "2021-02-23",
      "last_available_death_rate": 0.0182,
      "last_available_deaths": 3246,
      "new_confirmed": 0,
      "new_deaths": 0,
      "order_for_place": 348,
      "place_type": "state",
      "state": "MS"
    },
    {
      "city": null,
      "city_ibge_code": 51,
      "date": "2021-02-24",
      "epidemiological_week": 202108,
      "estimated_population": 3526220,
      "estimated_population_2019": 3484466,
      "is_last": true,
      "is_repeated": false,
      "last_available_confirmed": 246469,
      "last_available_confirmed_per_100k_inhabitants": 6989.60927,
      "last_available_date": "2021-02-24",
      "last_available_death_rate": 0.0232,
      "last_available_deaths": 5716,
      "new_confirmed": 1859,
      "new_deaths": 22,
      "order_for_place": 342,
      "place_type": "state",
      "state": "MT"
    },
    {
      "city": null,
      "city_ibge_code": 15,
      "date": "2021-02-24",
      "epidemiological_week": 202108,
      "estimated_population": 8690745,
      "estimated_population_2019": 8602865,
      "is_last": true,
      "is_repeated": false,
      "last_available_confirmed": 360629,
      "last_available_confirmed_per_100k_inhabitants": 4149.57521,
      "last_available_date": "2021-02-24",
      "last_available_death_rate": 0.0234,
      "last_available_deaths": 8435,
      "new_confirmed": 1340,
      "new_deaths": 52,
      "order_for_place": 344,
      "place_type": "state",
      "state": "PA"
    },
    {
      "city": null,
      "city_ibge_code": 25,
      "date": "2021-02-24",
      "epidemiological_week": 202108,
      "estimated_population": 4039277,
      "estimated_population_2019": 4018127,
      "is_last": true,
      "is_repeated": false,
      "last_available_confirmed": 215527,
      "last_available_confirmed_per_100k_inhabitants": 5335.78163,
      "last_available_date": "2021-02-24",
      "last_available_death_rate": 0.0205,
      "last_available_deaths": 4419,
      "new_confirmed": 1320,
      "new_deaths": 15,
      "order_for_place": 350,
      "place_type": "state",
      "state": "PB"
    },
    {
      "city": null,
      "city_ibge_code": 26,
      "date": "2021-02-24",
      "epidemiological_week": 202108,
      "estimated_population": 9616621,
      "estimated_population_2019": 9557071,
      "is_last": true,
      "is_repeated": false,
      "last_available_confirmed": 294479,
      "last_available_confirmed_per_100k_inhabitants": 3062.18785,
      "last_available_date": "2021-02-24",
      "last_available_death_rate": 0.0371,
      "last_available_deaths": 10911,
      "new_confirmed": 1566,
      "new_deaths": 24,
      "order_for_place": 350,
      "place_type": "state",
      "state": "PE"
    },
    {
      "city": null,
      "city_ibge_code": 22,
      "date": "2021-02-24",
      "epidemiological_week": 202108,
      "estimated_population": 3281480,
      "estimated_population_2019": 3273227,
      "is_last": true,
      "is_repeated": false,
      "last_available_confirmed": 171668,
      "last_available_confirmed_per_100k_inhabitants": 5231.41997,
      "last_available_date": "2021-02-24",
      "last_available_death_rate": 0.0192,
      "last_available_deaths": 3289,
      "new_confirmed": 636,
      "new_deaths": 15,
      "order_for_place": 343,
      "place_type": "state",
      "state": "PI"
    },
    {
      "city": null,
      "city_ibge_code": 41,
      "date": "2021-02-24",
      "epidemiological_week": 202108,
      "estimated_population": 11516840,
      "estimated_population_2019": 11433957,
      "is_last": true,
      "is_repeated": false,
      "last_available_confirmed": 627907,
      "last_available_confirmed_per_100k_inhabitants": 5452.07713,
      "last_available_date": "2021-02-24",
      "last_available_death_rate": 0.0181,
      "last_available_deaths": 11358,
      "new_confirmed": 4467,
      "new_deaths": 65,
      "order_for_place": 350,
      "place_type": "state",
      "state": "PR"
    },
    {
      "city": null,
      "city_ibge_code": 33,
      "date": "2021-02-24",
      "epidemiological_week": 202108,
      "estimated_population": 17366189,
      "estimated_population_2019": 17264943,
      "is_last": true,
      "is_repeated": false,
      "last_available_confirmed": 577183,
      "last_available_confirmed_per_100k_inhabitants": 3323.60197,
      "last_available_date": "2021-02-24",
      "last_available_death_rate": 0.0564,
      "last_available_deaths": 32574,
      "new_confirmed": 3908,
      "new_deaths": 171,
      "order_for_place": 357,
      "place_type": "state",
      "state": "RJ"
    },
    {
      "city": null,
      "city_ibge_code": 24,
      "date": "2021-02-24",
      "epidemiological_week": 202108,
      "estimated_population": 3534165,
      "estimated_population_2019": 3506853,
      "is_last": false,
      "is_repeated": true,
      "last_available_confirmed": 163472,
      "last_available_confirmed_per_100k_inhabitants": 4625.47731,
      "last_available_date": "2021-02-23",
      "last_available_death_rate": 0.0218,
      "last_available_deaths": 3563,
      "new_confirmed": 0,
      "new_deaths": 0,
      "order_for_place": 350,
      "place_type": "state",
      "state": "RN"
    },
    {
      "city": null,
      "city_ibge_code": 11,
      "date": "2021-02-24",
      "epidemiological_week": 202108,
      "estimated_population": 1796460,
      "estimated_population_2019": 1777225,
      "is_last": true,
      "is_repeated": false,
      "last_available_confirmed": 145427,
      "last_available_confirmed_per_100k_inhabitants": 8095.19833,
      "last_available_date": "2021-02-24",
      "last_available_death_rate": 0.0192,
      "last_available_deaths": 2787,
      "new_confirmed": 1243,
      "new_deaths": 42,
      "order_for_place": 342,
      "place_type": "state",
      "state": "RO"
    },
    {
      "city": null,
      "city_ibge_code": 14,
      "date": "2021-02-24",
      "epidemiological_week": 202108,
      "estimated_population": 631181,
      "estimated_population_2019": 605761,
      "is_last": true,
      "is_repeated": false,
      "last_available_confirmed": 80923,
      "last_available_confirmed_per_100k_inhabitants": 12820.88656,
      "last_available_date": "2021-02-24",
      "last_available_death_rate": 0.0134,
      "last_available_deaths": 1083,
      "new_confirmed": 451,
      "new_deaths": 9,
      "order_for_place": 341,
      "place_type": "state",
      "state": "RR"
    },
    {
      "city": null,
      "city_ibge_code": 43,
      "date": "2021-02-24",
      "epidemiological_week": 202108,
      "estimated_population": 11422973,
      "estimated_population_2019": 11377239,
      "is_last": true,
      "is_repeated": false,
      "last_available_confirmed": 619385,
      "last_available_confirmed_per_100k_inhabitants": 5422.27492,
      "last_available_date": "2021-02-24",
      "last_available_death_rate": 0.0194,
      "last_available_deaths": 12029,
      "new_confirmed": 7194,
      "new_deaths": 97,
      "order_for_place": 352,
      "place_type": "state",
      "state": "RS"
    },
    {
      "city": null,
      "city_ibge_code": 42,
      "date": "2021-02-24",
      "epidemiological_week": 202108,
      "estimated_population": 7252502,
      "estimated_population_2019": 7164788,
      "is_last": true,
      "is_repeated": false,
      "last_available_confirmed": 652895,
      "last_available_confirmed_per_100k_inhabitants": 9002.34154,
      "last_available_date": "2021-02-24",
      "last_available_death_rate": 0.0109,
      "last_available_deaths": 7114,
      "new_confirmed": 4878,
      "new_deaths": 70,
      "order_for_place": 350,
      "place_type": "state",
      "state": "SC"
    },
    {
      "city": null,
      "city_ibge_code": 28,
      "date": "2021-02-24",
      "epidemiological_week": 202108,
      "estimated_population": 2318822,
      "estimated_population_2019": 2298696,
      "is_last": true,
      "is_repeated": false,
      "last_available_confirmed": 149077,
      "last_available_confirmed_per_100k_inhabitants": 6428.99714,
      "last_available_date": "2021-02-24",
      "last_available_death_rate": 0.0197,
      "last_available_deaths": 2930,
      "new_confirmed": 450,
      "new_deaths": 9,
      "order_for_place": 348,
      "place_type": "state",
      "state": "SE"
    },
    {
      "city": null,
      "city_ibge_code": 35,
      "date": "2021-02-24",
      "epidemiological_week": 202108,
      "estimated_population": 46289333,
      "estimated_population_2019": 45919049,
      "is_last": true,
      "is_repeated": false,
      "last_available_confirmed": 2002640,
      "last_available_confirmed_per_100k_inhabitants": 4326.35311,
      "last_available_date": "2021-02-24",
      "last_available_death_rate": 0.0292,
      "last_available_deaths": 58528,
      "new_confirmed": 12086,
      "new_deaths": 329,
      "order_for_place": 366,
      "place_type": "state",
      "state": "SP"
    },
    {
      "city": null,
      "city_ibge_code": 17,
      "date": "2021-02-24",
      "epidemiological_week": 202108,
      "estimated_population": 1590248,
      "estimated_population_2019": 1572866,
      "is_last": false,
      "is_repeated": true,
      "last_available_confirmed": 111370,
      "last_available_confirmed_per_100k_inhabitants": 7003.31018,
      "last_available_date": "2021-02-23",
      "last_available_death_rate": 0.0134,
      "last_available_deaths": 1496,
      "new_confirmed": 0,
      "new_deaths": 0,
      "order_for_place": 344,
      "place_type": "state",
      "state": "TO"
    }
  ]
}
